<?xml version="1.0" encoding="UTF-8"?>
<testng-results ignored="1" total="4" passed="3" failed="0" skipped="0">
  <reporter-output>
  </reporter-output>
  <suite started-at="2020-03-06T09:39:37 IST" name="org.training.idc.selenium1.NewTest" finished-at="2020-03-06T09:39:55 IST" duration-ms="18268">
    <groups>
    </groups>
    <test started-at="2020-03-06T09:39:37 IST" name="Command line test" finished-at="2020-03-06T09:39:55 IST" duration-ms="18268">
      <class name="org.training.idc.selenium1.NewTest">
        <test-method is-config="true" signature="first()[pri:0, instance:org.training.idc.selenium1.NewTest@6a400542]" started-at="2020-03-06T09:39:37 IST" name="first" finished-at="2020-03-06T09:39:53 IST" duration-ms="16389" status="PASS">
          <reporter-output>
          </reporter-output>
        </test-method> <!-- first -->
        <test-method signature="five()[pri:0, instance:org.training.idc.selenium1.NewTest@6a400542]" started-at="2020-03-06T09:39:53 IST" name="five" finished-at="2020-03-06T09:39:53 IST" duration-ms="2" status="PASS">
          <reporter-output>
          </reporter-output>
        </test-method> <!-- five -->
        <test-method signature="three()[pri:0, instance:org.training.idc.selenium1.NewTest@6a400542]" started-at="2020-03-06T09:39:53 IST" name="three" finished-at="2020-03-06T09:39:53 IST" duration-ms="1" status="PASS">
          <reporter-output>
          </reporter-output>
        </test-method> <!-- three -->
        <test-method signature="two()[pri:0, instance:org.training.idc.selenium1.NewTest@6a400542]" started-at="2020-03-06T09:39:53 IST" name="two" finished-at="2020-03-06T09:39:53 IST" depends-on-methods="org.training.idc.selenium1.NewTest.three" duration-ms="0" status="PASS">
          <reporter-output>
          </reporter-output>
        </test-method> <!-- two -->
        <test-method is-config="true" signature="last()[pri:0, instance:org.training.idc.selenium1.NewTest@6a400542]" started-at="2020-03-06T09:39:53 IST" name="last" finished-at="2020-03-06T09:39:55 IST" duration-ms="1813" status="PASS">
          <reporter-output>
          </reporter-output>
        </test-method> <!-- last -->
      </class> <!-- org.training.idc.selenium1.NewTest -->
    </test> <!-- Command line test -->
  </suite> <!-- org.training.idc.selenium1.NewTest -->
</testng-results>
