C:\Users\morafi.ORADEV\eclipse-workspace\selenium1\src\main\java\org\training\idc\selenium1\Activity2Day2.java
C:\Users\morafi.ORADEV\eclipse-workspace\selenium1\src\main\java\org\training\idc\selenium1\Activity1Day4.java
C:\Users\morafi.ORADEV\eclipse-workspace\selenium1\src\main\java\org\training\idc\selenium1\Activity6Day3.java
C:\Users\morafi.ORADEV\eclipse-workspace\selenium1\src\main\java\org\training\idc\selenium1\Activity5Day2.java
C:\Users\morafi.ORADEV\eclipse-workspace\selenium1\src\main\java\org\training\idc\selenium1\Activity3Day3.java
C:\Users\morafi.ORADEV\eclipse-workspace\selenium1\src\main\java\org\training\idc\selenium1\Activity3Day2.java
C:\Users\morafi.ORADEV\eclipse-workspace\selenium1\src\main\java\org\training\idc\selenium1\App.java
C:\Users\morafi.ORADEV\eclipse-workspace\selenium1\src\main\java\org\training\idc\selenium1\ActivityDay1.java
C:\Users\morafi.ORADEV\eclipse-workspace\selenium1\src\main\java\org\training\idc\selenium1\Activity4day3.java
C:\Users\morafi.ORADEV\eclipse-workspace\selenium1\src\main\java\org\training\idc\selenium1\Activity5Day3.java
C:\Users\morafi.ORADEV\eclipse-workspace\selenium1\src\main\java\org\training\idc\selenium1\Activity7Day3.java
C:\Users\morafi.ORADEV\eclipse-workspace\selenium1\src\main\java\org\training\idc\selenium1\Activity1Day3.java
C:\Users\morafi.ORADEV\eclipse-workspace\selenium1\src\main\java\org\training\idc\selenium1\Activity4Day2.java
C:\Users\morafi.ORADEV\eclipse-workspace\selenium1\src\main\java\org\training\idc\selenium1\Activity2Day3.java
